[{
	"name": "6A121",
	"abbrv": "6A121",
	"center": [0,0],
	"unit": [0,0],
	"type": "L",
	"adj": [["6A124"],[]]
}, {
	"name": "6A122",
	"abbrv": "6A122",
	"center": [0,0],
	"unit": [0,0],
	"type": "L",
	"adj": [["6A124"],[]]
}, {
	"name": "6A123",
	"abbrv": "6A123",
	"center": [0,0],
	"unit": [0,0],
	"type": "L",
	"adj": [["6A124"],[]]
}, {
	"name": "6A124",
	"abbrv": "6A124",
	"center": [0,0],
	"unit": [0,0],
	"type": "L",
	"adj": [["6A121", "6A122", "6A123"],[]]
}]